<?xml version="1.0" encoding="UTF-8" standalone="no"?>
<!-- Created with Inkscape (http://www.inkscape.org/) -->

<svg
   xmlns:dc="http://purl.org/dc/elements/1.1/"
   xmlns:cc="http://creativecommons.org/ns#"
   xmlns:rdf="http://www.w3.org/1999/02/22-rdf-syntax-ns#"
   xmlns:svg="http://www.w3.org/2000/svg"
   xmlns="http://www.w3.org/2000/svg"
   xmlns:sodipodi="http://sodipodi.sourceforge.net/DTD/sodipodi-0.dtd"
   xmlns:inkscape="http://www.inkscape.org/namespaces/inkscape"
   width="75"
   height="75"
   id="svg12223"
   version="1.1"
   inkscape:version="0.48.4 r9939"
   sodipodi:docname="2.svg">
  <defs
     id="defs12225" />
  <sodipodi:namedview
     inkscape:document-units="in"
     pagecolor="#ffffff"
     bordercolor="#666666"
     borderopacity="1.0"
     inkscape:pageopacity="0.0"
     inkscape:pageshadow="2"
     inkscape:zoom="1.8869182"
     inkscape:cx="103.28134"
     inkscape:cy="110.06027"
     inkscape:current-layer="layer1"
     id="namedview12227"
     showgrid="false"
     units="in"
     fit-margin-top="0"
     fit-margin-left="0"
     fit-margin-right="0"
     fit-margin-bottom="0"
     inkscape:window-width="927"
     inkscape:window-height="1028"
     inkscape:window-x="992"
     inkscape:window-y="24"
     inkscape:window-maximized="0" />
  <metadata
     id="metadata12229">
    <rdf:RDF>
      <cc:Work
         rdf:about="">
        <dc:format>image/svg+xml</dc:format>
        <dc:type
           rdf:resource="http://purl.org/dc/dcmitype/StillImage" />
        <dc:title></dc:title>
      </cc:Work>
    </rdf:RDF>
  </metadata>
  <g
     inkscape:label="Layer 1"
     inkscape:groupmode="layer"
     id="layer1"
     transform="translate(4.7268717e-5,-915.00042)">
    <path
       sodipodi:type="arc"
       id="path3749-5-2-6-5-8"
       sodipodi:cx="95.312775"
       sodipodi:cy="408.23337"
       sodipodi:rx="44.797005"
       sodipodi:ry="32.882908"
       d="m 140.10978,408.23337 c 0,18.16073 -20.0563,32.88291 -44.797005,32.88291 -24.740703,0 -44.797005,-14.72218 -44.797005,-32.88291 0,-18.16073 20.056302,-32.88291 44.797005,-32.88291 24.740705,0 44.797005,14.72218 44.797005,32.88291 z"
       transform="matrix(0.79724718,0,0,1.0861049,-38.487888,509.11616)"
       style="fill:#0000ff;stroke:#cccccc;stroke-width:3.83804107;stroke-miterlimit:4;stroke-opacity:1;stroke-dasharray:none" />
  </g>
</svg>
